…
3. Relationship between arrival delay and temperature

Now calculate the mean arrival delay for each day of the year, and store in a variable called daily_delays.

flights %>% group_by(year, month, day) %>% summarize(mean_delay=mean(arr_delay, na.rm=T)) -> daily_delays
daily_delays

## Source: local data frame [365 x 4]
## Groups: year, month [?]
## 
##     year month   day mean_delay
##    <int> <int> <int>      <dbl>
## 1   2013     1     1 12.6510229
## 2   2013     1     2 12.6928879
## 3   2013     1     3  5.7333333
## 4   2013     1     4 -1.9328194
## 5   2013     1     5 -1.5258020
## 6   2013     1     6  4.2364294
## 7   2013     1     7 -4.9473118
## 8   2013     1     8 -3.2275785
## 9   2013     1     9 -0.2642777
## 10  2013     1    10 -5.8988159
## # ... with 355 more rows
…
First, calculate the mean temperature for each day, and store in a variable called mean_temp:

weather %>% group_by(year, month, day) %>% summarize(mean_temp=mean(temp)) -> mean_temp
mean_temp

## Source: local data frame [364 x 4]
## Groups: year, month [?]
## 
##     year month   day mean_temp
##    <dbl> <dbl> <int>     <dbl>
## 1   2013     1     1  38.86348
## 2   2013     1     2  28.70000
## 3   2013     1     3  29.64500
## 4   2013     1     4  34.25750
## 5   2013     1     5  37.12250
## 6   2013     1     6  38.37500
## 7   2013     1     7  41.76500
## 8   2013     1     8  39.49250
## 9   2013     1     9  41.81000
## 10  2013     1    10  45.02500
## # ... with 354 more rows
…
