class9_solutions.utf8.md
…
biopsy

## # A tibble: 683 x 10
##    clump_thickness uniform_cell_si uniform_cell_sh marg_adhesion
##              <dbl>            <dbl>            <dbl>         <dbl>
##  1               5                1                1             1
##  2               5                4                4             5
##  3               3                1                1             1
##  4               6                8                8             1
##  5               4                1                1             3
##  6               8               10               10             8
##  7               1                1                1             1
##  8               2                1                2             1
##  9               2                1                1             1
## 10               4                2                1             1
## #  with 673 more rows, and 6 more variables: epithelial_cell_size <dbl>,
## #   bare_nuclei <dbl>, bland_chromatin <dbl>, normal_nucleoli <dbl>,
## #   mitoses <dbl>, outcome <chr>
…
pottery <- read_csv("https://wilkelab.org/classes/SDS348/data_sets/pottery.csv")

## Parsed with column specification:
## cols(
##   Site = col_character(),
##   Al = col_double(),
##   Fe = col_double(),
##   Mg = col_double(),
##   Ca = col_double(),
##   Na = col_double()
## )

pottery

## # A tibble: 26 x 6
##    Site         Al    Fe    Mg    Ca    Na
##    <chr>     <dbl> <dbl> <dbl> <dbl> <dbl>
##  1 Llanedyrn  14.4  7     4.3  0.15   0.51
##  2 Llanedyrn  13.8  7.08  3.43 0.12   0.17
##  3 Llanedyrn  14.6  7.09  3.88 0.13   0.2 
##  4 Llanedyrn  11.5  6.37  5.64 0.16   0.14
##  5 Llanedyrn  13.8  7.06  5.34 0.2    0.2 
##  6 Llanedyrn  10.9  6.26  3.47 0.17   0.22
##  7 Llanedyrn  10.1  4.26  4.26 0.2    0.18
##  8 Llanedyrn  11.6  5.78  5.91 0.18   0.16
##  9 Llanedyrn  11.1  5.49  4.52 0.290  0.3 
## 10 Llanedyrn  13.4  6.92  7.23 0.28   0.2 
## #  with 16 more rows
…
